…
``` r
read_csv("data/daily/2022-03-26_oryx_data.csv")
#> Rows: 1798 Columns: 13
#> ── Column specification ────────────────────────────────────────────────────────
#> Delimiter: ","
#> chr  (6): equipment_type, cntry_army, flag, system, status, image_link
#> dbl  (6): total_equipment_type_oryx, total_system_oryx, total_destroyed_oryx...
#> dttm (1): timestamp
#> 
#> ℹ Use `spec()` to retrieve the full column specification for this data.
#> ℹ Specify the column types or set `show_col_types = FALSE` to quiet this message.
#> # A tibble: 1,798 × 13
#>    equipment_type cntry_army flag     system status image_link  total_equipment…
#>    <chr>          <chr>      <chr>    <chr>  <chr>  <chr>                  <dbl>
#>  1 Tanks          Russia     https:/… T-64BV destr… https://i.…                7
#>  2 Tanks          Russia     https:/… T-64BV destr… https://i.…                7
#>  3 Tanks          Russia     https:/… T-64BV destr… https://i.…                7
#>  4 Tanks          Russia     https:/… T-64BV destr… https://i.…                7
#>  5 Tanks          Russia     https:/… T-64BV damag… https://i.…                7
#>  6 Tanks          Russia     https:/… T-64BV captu… https://i.…                7
#>  7 Tanks          Russia     https:/… T-64BV captu… https://i.…                7
#>  8 Tanks          Russia     https:/… T-72A  destr… https://i.…                8
#>  9 Tanks          Russia     https:/… T-72A  destr… https://i.…                8
#> 10 Tanks          Russia     https:/… T-72A  captu… https://i.…                8
#> # … with 1,788 more rows, and 6 more variables: total_system_oryx <dbl>,
#> #   total_destroyed_oryx <dbl>, total_abandoned_oryx <dbl>,
#> #   total_captured_oryx <dbl>, total_damaged_oryx <dbl>, timestamp <dttm>
```
…
